{
  "groupId"         : "cl.mmsoft.periodos",
  "artifactId"      : "api-periodos",
  "artifactVersion" : "1.0.0",
  "artifactDescription" : "Micro Servicio de generacion de periodos",
  
  "basePackage"     : "cl.mmsoft.periodos",
  "invokerPackage"  : "cl.mmsoft.periodos.swagger",
  "apiPackage"      : "cl.mmsoft.periodos.swagger.codegen.api",
  "modelPackage"    : "cl.mmsoft.periodos.swagger.codegen.model",
  "configPackage"   : "cl.mmsoft.periodos.swagger.codegen.config",
  "java8"           : true,
  "title"           : "API Periodos",
  "hideGenerationTimestamp" : true,
  "library"         : "spring-boot"
}